#! /usr/bin/gnuplot
set grid
plot [-1.0000001:0.999999] [-5:10] 1/(1-x) lw 4, \
    1 + x, \
    1 + x + x**2, \
    1 + x + x**2 + x**3, \
    1 + x + x**2 + x**3 + x**4, \
    1 + x + x**2 + x**3 + x**4 + x**5, \
    1 + x + x**2 + x**3 + x**4 + x**5 + x**6, \
    1 + x + x**2 + x**3 + x**4 + x**5 + x**6 + x**7, \
    1 + x + x**2 + x**3 + x**4 + x**5 + x**6 + x**7 + x**8
